[
	{
		"label": "Custom Colors",
		"tooltip": "Customize players colors.",
		"options": [
			{
				"type": "dropdown",
				"label": "[color=\"220 185 70\"]Reset Colors[/color] Reset colors to a preset",
				"tooltip": "Choose a color preset. Will set itself back to 'Custom' when changes are applied. CUSTOMIZED COLORS WILL BE LOST!",
				"config": "customcolors.colorPreset",
				"list": [
					{
						"value": "vanilla",
						"label": "Vanilla (Base game)"
					},
					{
						"value": "moderngui",
						"label": "ModernGUI"
					},
					{
						"value": "custom",
						"label": "Custom"
					}
				]
			},
			{
				"type": "color",
				"label": "Color 1",
				"tooltip": "Choose a replacement color for Color 1.",
				"config": "customcolors.1",
				"val": "10 10 190"
			},
			{
				"type": "color",
				"label": "Color 2",
				"tooltip": "Choose a replacement color for Color 2.",
				"config": "customcolors.2",
				"val": "230 10 10"
			},
			{
				"type": "color",
				"label": "Color 3",
				"tooltip": "Choose a replacement color for Color 3.",
				"config": "customcolors.3",
				"val": "125 235 15"
			},
			{
				"type": "color",
				"label": "Color 4",
				"tooltip": "Choose a replacement color for Color 4.",
				"config": "customcolors.4",
				"val": "255 255 55"
			},
			{
				"type": "color",
				"label": "Color 5",
				"tooltip": "Choose a replacement color for Color 5.",
				"config": "customcolors.5",
				"val": "130 0 230"
			},
			{
				"type": "color",
				"label": "Color 6",
				"tooltip": "Choose a replacement color for Color 6.",
				"config": "customcolors.6",
				"val": "255 130 0"
			},
			{
				"type": "color",
				"label": "Color 7",
				"tooltip": "Choose a replacement color for Color 7.",
				"config": "customcolors.7",
				"val": "10 230 230"
			},
			{
				"type": "color",
				"label": "Color 8",
				"tooltip": "Choose a replacement color for Color 8.",
				"config": "customcolors.8",
				"val": "20 80 60"
			},
			{
				"type": "boolean",
				"label": "[color=\"220 185 70\"]Allow all Colors[/color] UnFIXED colors.",
				"tooltip": "You can uncheck this to force fixed colors.",
				"config": "customcolors.AllowMoreColors"
			},
			{
				"type": "color",
				"label": "Color 9",
				"tooltip": "Choose a replacement color for Color 9.",
				"config": "customcolors.9",
				"val": "220 160 220",
				"dependencies": [
					"customcolors.AllowMoreColors"
				]
			},
			{
				"type": "color",
				"label": "Color 10",
				"tooltip": "Choose a replacement color for Color 10.",
				"config": "customcolors.10",
				"val": "80 255 190",
				"dependencies": [
					"customcolors.AllowMoreColors"
				]
			},
			{
				"type": "color",
				"label": "Color 11",
				"tooltip": "Choose a replacement color for Color 11.",
				"config": "customcolors.11",
				"val": "50 150 255",
				"dependencies": [
					"customcolors.AllowMoreColors"
				]
			},
			{
				"type": "color",
				"label": "Color 12",
				"tooltip": "Choose a replacement color for Color 12.",
				"config": "customcolors.12",
				"val": "100 150 30",
				"dependencies": [
					"customcolors.AllowMoreColors"
				]
			},
			{
				"type": "color",
				"label": "Color 13",
				"tooltip": "Choose a replacement color for Color 13.",
				"config": "customcolors.13",
				"val": "100 60 30",
				"dependencies": [
					"customcolors.AllowMoreColors"
				]
			},
			{
				"type": "color",
				"label": "Color 14",
				"tooltip": "Choose a replacement color for Color 14.",
				"config": "customcolors.14",
				"val": "128 0 64",
				"dependencies": [
					"customcolors.AllowMoreColors"
				]
			},
			{
				"type": "color",
				"label": "Color 15",
				"tooltip": "Choose a replacement color for Color 15.",
				"config": "customcolors.15",
				"val": "255 200 140",
				"dependencies": [
					"customcolors.AllowMoreColors"
				]
			},
			{
				"type": "color",
				"label": "Color 16",
				"tooltip": "Choose a replacement color for Color 16.",
				"config": "customcolors.16",
				"val": "80 80 80",
				"dependencies": [
					"customcolors.AllowMoreColors"
				]
			},
			{
				"type": "boolean",
				"label": "[color=\"220 185 70\"]Replace Own Color[/color] Replace your own color in game",
				"tooltip": "You can replace your color from the one assigned to you.",
				"config": "customcolors.replaceOwn"
			},
			{
				"type": "dropdown",
				"label": "[color=\"220 185 70\"]Replace Own Color[/color] Pick the color to use",
				"tooltip": "Choose a replacement color.",
				"config": "customcolors.ownReplacementColor",
				"list": [
					{
						"value": "1",
						"label": "Always Color  1"
					},
					{
						"value": "2",
						"label": "Always Color  2"
					},
					{
						"value": "3",
						"label": "Always Color  3"
					},
					{
						"value": "4",
						"label": "Always Color  4"
					},
					{
						"value": "5",
						"label": "Always Color  5"
					},
					{
						"value": "6",
						"label": "Always Color  6"
					},
					{
						"value": "7",
						"label": "Always Color  7"
					},
					{
						"value": "8",
						"label": "Always Color  8"
					},
					{
						"value": "9",
						"label": "Always Color  9"
					},
					{
						"value": "10",
						"label": "Always Color  10"
					},
					{
						"value": "11",
						"label": "Always Color  11"
					},
					{
						"value": "12",
						"label": "Always Color  12"
					},
					{
						"value": "13",
						"label": "Always Color  13"
					},
					{
						"value": "14",
						"label": "Always Color  14"
					},
					{
						"value": "15",
						"label": "Always Color  15"
					},
					{
						"value": "16",
						"label": "Always Color  16"
					}
				],
				"dependencies": [
					"customcolors.replaceOwn"
				]
			}
		]
	}
]